pccc-icd-codes
…
If a user prefers to explore the ICD codes in a data.frame, then use the base R as.data.frame method to convert the output from get_codes to a data.frame.

as.data.frame(get_codes(9))
#> # A tibble: 736 x 3
#>    category  type  icd  
#>    <chr>     <chr> <chr>
#>  1 neuromusc dx    3180 
#>  2 neuromusc dx    3181 
#>  3 neuromusc dx    3182 
#>  4 neuromusc dx    330  
#>  5 neuromusc dx    331  
#>  6 neuromusc dx    3320 
#>  7 neuromusc dx    3321 
#>  8 neuromusc dx    3330 
#>  9 neuromusc dx    3332 
#> 10 neuromusc dx    3334 
#> # … with 726 more rows
…
